MQO_Propriedades-algebricas.knit
…
Os valores estimados so dados pela seguinte formula:

\(\widehat{salary}_i = \beta_{0} + \beta_{1}roe_{i}\)

# Calculando os valores estimados:
dados <- tibble(salary,roe) %>%   # Criando um data_frame com as variaveis salary e roe
  mutate(valores_estimados = hat_beta_0 + hat_beta_1*roe) 

# Poderiamos usar aqui a funo escrita anteriomente:
dados_2 <- tibble(salary,roe) %>%   
  mutate(valores_estimados = salary_ceo(roe)) 

dados

## # A tibble: 206 x 3
##    salary   roe valores_estimados
##     <dbl> <dbl>             <dbl>
##  1   1095 14.1              1094.
##  2   1001 10.9              1045.
##  3   1122 23.5              1238.
##  4    578  5.90              968.
##  5   1368 13.8              1089.
##  6   1145 20                1184.
##  7   1078 16.4              1129.
##  8   1094 16.3              1128.
##  9   1237 10.5              1039.
## 10    833 26.3              1281.
## # ... with 196 more rows
…
# Calculando resduos:
dados <- dados %>% 
  mutate(uhat = salary - valores_estimados)

dados

## # A tibble: 206 x 4
##    salary   roe valores_estimados    uhat
##     <dbl> <dbl>             <dbl>   <dbl>
##  1   1095 14.1              1094.    1.06
##  2   1001 10.9              1045.  -44.0 
##  3   1122 23.5              1238. -116.  
##  4    578  5.90              968. -390.  
##  5   1368 13.8              1089.  279.  
##  6   1145 20                1184.  -39.2 
##  7   1078 16.4              1129.  -51.1 
##  8   1094 16.3              1128.  -33.6 
##  9   1237 10.5              1039.  198.  
## 10    833 26.3              1281. -448.  
## # ... with 196 more rows
…
